^E:\KAYSAR\THESIS\ALL CODES\3D\3D\3D\DEBUG\CAMERA.OBJ|E:\KAYSAR\THESIS\ALL CODES\3D\3D\3D\DEBUG\GPC.OBJ|E:\KAYSAR\THESIS\ALL CODES\3D\3D\3D\DEBUG\MIAN.OBJ|E:\KAYSAR\THESIS\ALL CODES\3D\3D\3D\DEBUG\PREVSOURCE.OBJ|E:\KAYSAR\THESIS\ALL CODES\3D\3D\3D\DEBUG\VECTOR3.OBJ
C:\PROGRAM FILES\WINDOWS KITS\8.0\LIB\WIN8\UM\X86\KERNEL32.LIB
C:\PROGRAM FILES\WINDOWS KITS\8.0\LIB\WIN8\UM\X86\USER32.LIB
C:\PROGRAM FILES\WINDOWS KITS\8.0\LIB\WIN8\UM\X86\GDI32.LIB
C:\PROGRAM FILES\WINDOWS KITS\8.0\LIB\WIN8\UM\X86\WINSPOOL.LIB
C:\PROGRAM FILES\WINDOWS KITS\8.0\LIB\WIN8\UM\X86\COMDLG32.LIB
C:\PROGRAM FILES\WINDOWS KITS\8.0\LIB\WIN8\UM\X86\ADVAPI32.LIB
C:\PROGRAM FILES\WINDOWS KITS\8.0\LIB\WIN8\UM\X86\SHELL32.LIB
C:\PROGRAM FILES\WINDOWS KITS\8.0\LIB\WIN8\UM\X86\OLE32.LIB
C:\PROGRAM FILES\WINDOWS KITS\8.0\LIB\WIN8\UM\X86\OLEAUT32.LIB
C:\PROGRAM FILES\WINDOWS KITS\8.0\LIB\WIN8\UM\X86\UUID.LIB
C:\PROGRAM FILES\WINDOWS KITS\8.0\LIB\WIN8\UM\X86\ODBC32.LIB
C:\PROGRAM FILES\WINDOWS KITS\8.0\LIB\WIN8\UM\X86\ODBCCP32.LIB
E:\KAYSAR\THESIS\ALL CODES\3D\3D\3D\DEBUG\CAMERA.OBJ
E:\KAYSAR\THESIS\ALL CODES\3D\3D\3D\DEBUG\GPC.OBJ
E:\KAYSAR\THESIS\ALL CODES\3D\3D\3D\DEBUG\MIAN.OBJ
E:\KAYSAR\THESIS\ALL CODES\3D\3D\3D\DEBUG\PREVSOURCE.OBJ
E:\KAYSAR\THESIS\ALL CODES\3D\3D\3D\DEBUG\VECTOR3.OBJ
C:\WINDOWS\SYSTEM32\TZRES.DLL
C:\WINDOWS\GLOBALIZATION\SORTING\SORTDEFAULT.NLS
C:\PROGRAM FILES\WINDOWS KITS\8.0\LIB\WIN8\UM\X86\WINMM.LIB
C:\PROGRAM FILES\WINDOWS KITS\8.0\LIB\WIN8\UM\X86\OPENGL32.LIB
C:\PROGRAM FILES\WINDOWS KITS\8.0\LIB\WIN8\UM\X86\GLU32.LIB
C:\PROGRAM FILES\MICROSOFT VISUAL STUDIO 11.0\VC\LIB\GLUT32.LIB
C:\PROGRAM FILES\MICROSOFT VISUAL STUDIO 11.0\VC\LIB\MSVCPRTD.LIB
C:\PROGRAM FILES\MICROSOFT VISUAL STUDIO 11.0\VC\LIB\MSVCRTD.LIB
C:\PROGRAM FILES\MICROSOFT VISUAL STUDIO 11.0\VC\LIB\OLDNAMES.LIB
