^D:\STUDY\MS\VCM\3D - COPY\3D\3D\CAMERA.CPP|D:\STUDY\MS\VCM\3D - COPY\3D\3D\GPC.CPP|D:\STUDY\MS\VCM\3D - COPY\3D\3D\MIAN.CPP|D:\STUDY\MS\VCM\3D - COPY\3D\3D\PREVSOURCE.CPP|D:\STUDY\MS\VCM\3D - COPY\3D\3D\VECTOR3.CPP
D:\STUDY\MS\VCM\3D - COPY\3D\3D\DEBUG\VC120.PDB
D:\STUDY\MS\VCM\3D - COPY\3D\3D\DEBUG\VC120.IDB
D:\STUDY\MS\VCM\3D - COPY\3D\3D\DEBUG\CAMERA.OBJ
D:\STUDY\MS\VCM\3D - COPY\3D\3D\DEBUG\GPC.OBJ
D:\STUDY\MS\VCM\3D - COPY\3D\3D\DEBUG\MIAN.OBJ
D:\STUDY\MS\VCM\3D - COPY\3D\3D\DEBUG\PREVSOURCE.OBJ
D:\STUDY\MS\VCM\3D - COPY\3D\3D\DEBUG\VECTOR3.OBJ
^D:\STUDY\MS\VCM\3D - COPY\3D\3D\CAMERA.CPP
D:\STUDY\MS\VCM\3D - COPY\3D\3D\DEBUG\VC120.PDB
^D:\STUDY\MS\VCM\3D - COPY\3D\3D\GPC.CPP
D:\STUDY\MS\VCM\3D - COPY\3D\3D\DEBUG\VC120.PDB
^D:\STUDY\MS\VCM\3D - COPY\3D\3D\MIAN.CPP
D:\STUDY\MS\VCM\3D - COPY\3D\3D\DEBUG\VC120.PDB
D:\STUDY\MS\VCM\3D - COPY\3D\3D\DEBUG\VC120.IDB
D:\STUDY\MS\VCM\3D - COPY\3D\3D\DEBUG\MIAN.OBJ
^D:\STUDY\MS\VCM\3D - COPY\3D\3D\PREVSOURCE.CPP
D:\STUDY\MS\VCM\3D - COPY\3D\3D\DEBUG\VC120.PDB
^D:\STUDY\MS\VCM\3D - COPY\3D\3D\VECTOR3.CPP
D:\STUDY\MS\VCM\3D - COPY\3D\3D\DEBUG\VC120.PDB
^D:\STUDY\MS\VCM\3D - COPY\3D\3D\MIAN.CPP|D:\STUDY\MS\VCM\3D - COPY\3D\3D\VECTOR3.CPP
D:\STUDY\MS\VCM\3D - COPY\3D\3D\DEBUG\VC120.PDB
D:\STUDY\MS\VCM\3D - COPY\3D\3D\DEBUG\VC120.IDB
D:\STUDY\MS\VCM\3D - COPY\3D\3D\DEBUG\MIAN.OBJ
D:\STUDY\MS\VCM\3D - COPY\3D\3D\DEBUG\VECTOR3.OBJ
