^D:\STUDY\MS\VCM\3D - COPY\3D\3D\DEBUG\CAMERA.OBJ|D:\STUDY\MS\VCM\3D - COPY\3D\3D\DEBUG\GPC.OBJ|D:\STUDY\MS\VCM\3D - COPY\3D\3D\DEBUG\MIAN.OBJ|D:\STUDY\MS\VCM\3D - COPY\3D\3D\DEBUG\PREVSOURCE.OBJ|D:\STUDY\MS\VCM\3D - COPY\3D\3D\DEBUG\VECTOR3.OBJ
D:\STUDY\MS\VCM\3D - COPY\3D\DEBUG\3D.ILK
D:\STUDY\MS\VCM\3D - COPY\3D\DEBUG\3D.EXE
D:\STUDY\MS\VCM\3D - COPY\3D\DEBUG\3D.PDB
